%YAML 1.1
%TAG !u! tag:unity3d.com,2011:
--- !u!13 &1
InputManager:
  m_ObjectHideFlags: 0
  serializedVersion: 2
  m_Axes:
  - serializedVersion: 3
    m_Name: P1 Horizontal
    descriptiveName: 
    descriptiveNegativeName: 
    negativeButton: left
    positiveButton: right
    altNegativeButton: a
    altPositiveButton: d
    gravity: 10000
    dead: .100000001
    sensitivity: 3
    snap: 0
    invert: 0
    type: 2
    axis: 0
    joyNum: 1
  - serializedVersion: 3
    m_Name: P2 Horizontal
    descriptiveName: 
    descriptiveNegativeName: 
    negativeButton: left
    positiveButton: right
    altNegativeButton: e
    altPositiveButton: t
    gravity: 10000
    dead: .100000001
    sensitivity: 3
    snap: 0
    invert: 0
    type: 2
    axis: 0
    joyNum: 2
  - serializedVersion: 3
    m_Name: P3 Horizontal
    descriptiveName: 
    descriptiveNegativeName: 
    negativeButton: left
    positiveButton: right
    altNegativeButton: g
    altPositiveButton: j
    gravity: 10000
    dead: .100000001
    sensitivity: 3
    snap: 0
    invert: 0
    type: 2
    axis: 0
    joyNum: 3
  - serializedVersion: 3
    m_Name: P4 Horizontal
    descriptiveName: 
    descriptiveNegativeName: 
    negativeButton: left
    positiveButton: right
    altNegativeButton: u
    altPositiveButton: o
    gravity: 10000
    dead: .100000001
    sensitivity: 3
    snap: 0
    invert: 0
    type: 2
    axis: 0
    joyNum: 4
  - serializedVersion: 3
    m_Name: P1 Vertical
    descriptiveName: 
    descriptiveNegativeName: 
    negativeButton: down
    positiveButton: up
    altNegativeButton: s
    altPositiveButton: w
    gravity: 10000
    dead: .00100000005
    sensitivity: 3
    snap: 0
    invert: 1
    type: 2
    axis: 1
    joyNum: 1
  - serializedVersion: 3
    m_Name: P2 Vertical
    descriptiveName: 
    descriptiveNegativeName: 
    negativeButton: down
    positiveButton: up
    altNegativeButton: r
    altPositiveButton: 4
    gravity: 10000
    dead: .00100000005
    sensitivity: 3
    snap: 0
    invert: 1
    type: 2
    axis: 1
    joyNum: 2
  - serializedVersion: 3
    m_Name: P3 Vertical
    descriptiveName: 
    descriptiveNegativeName: 
    negativeButton: down
    positiveButton: up
    altNegativeButton: h
    altPositiveButton: y
    gravity: 10000
    dead: .00100000005
    sensitivity: 3
    snap: 0
    invert: 1
    type: 2
    axis: 1
    joyNum: 3
  - serializedVersion: 3
    m_Name: P4 Vertical
    descriptiveName: 
    descriptiveNegativeName: 
    negativeButton: down
    positiveButton: up
    altNegativeButton: i
    altPositiveButton: 8
    gravity: 10000
    dead: .00100000005
    sensitivity: 3
    snap: 0
    invert: 1
    type: 2
    axis: 1
    joyNum: 4
  - serializedVersion: 3
    m_Name: Jump
    descriptiveName: 
    descriptiveNegativeName: 
    negativeButton: 
    positiveButton: space
    altNegativeButton: 
    altPositiveButton: 
    gravity: 1000
    dead: .00100000005
    sensitivity: 1000
    snap: 0
    invert: 0
    type: 0
    axis: 0
    joyNum: 0
  - serializedVersion: 3
    m_Name: Mouse X
    descriptiveName: 
    descriptiveNegativeName: 
    negativeButton: 
    positiveButton: 
    altNegativeButton: 
    altPositiveButton: 
    gravity: 0
    dead: 0
    sensitivity: .100000001
    snap: 0
    invert: 0
    type: 1
    axis: 0
    joyNum: 0
  - serializedVersion: 3
    m_Name: Mouse Y
    descriptiveName: 
    descriptiveNegativeName: 
    negativeButton: 
    positiveButton: 
    altNegativeButton: 
    altPositiveButton: 
    gravity: 0
    dead: 0
    sensitivity: .100000001
    snap: 0
    invert: 0
    type: 1
    axis: 1
    joyNum: 0
  - serializedVersion: 3
    m_Name: Mouse ScrollWheel
    descriptiveName: 
    descriptiveNegativeName: 
    negativeButton: 
    positiveButton: 
    altNegativeButton: 
    altPositiveButton: 
    gravity: 0
    dead: 0
    sensitivity: .100000001
    snap: 0
    invert: 0
    type: 1
    axis: 2
    joyNum: 0
  - serializedVersion: 3
    m_Name: Horizontal
    descriptiveName: 
    descriptiveNegativeName: 
    negativeButton: 
    positiveButton: 
    altNegativeButton: 
    altPositiveButton: 
    gravity: 0
    dead: .189999998
    sensitivity: 1
    snap: 0
    invert: 0
    type: 2
    axis: 0
    joyNum: 0
  - serializedVersion: 3
    m_Name: Vertical
    descriptiveName: 
    descriptiveNegativeName: 
    negativeButton: 
    positiveButton: 
    altNegativeButton: 
    altPositiveButton: 
    gravity: 0
    dead: .189999998
    sensitivity: 1
    snap: 0
    invert: 1
    type: 2
    axis: 1
    joyNum: 0
  - serializedVersion: 3
    m_Name: Fire1
    descriptiveName: 
    descriptiveNegativeName: 
    negativeButton: 
    positiveButton: joystick button 14
    altNegativeButton: 
    altPositiveButton: m
    gravity: 1000
    dead: .00100000005
    sensitivity: 1000
    snap: 0
    invert: 0
    type: 0
    axis: 0
    joyNum: 0
  - serializedVersion: 3
    m_Name: Fire2
    descriptiveName: 
    descriptiveNegativeName: 
    negativeButton: 
    positiveButton: joystick button 1
    altNegativeButton: 
    altPositiveButton: 
    gravity: 1000
    dead: .00100000005
    sensitivity: 1000
    snap: 0
    invert: 0
    type: 0
    axis: 0
    joyNum: 0
  - serializedVersion: 3
    m_Name: Fire3
    descriptiveName: 
    descriptiveNegativeName: 
    negativeButton: 
    positiveButton: joystick button 2
    altNegativeButton: 
    altPositiveButton: 
    gravity: 1000
    dead: .00100000005
    sensitivity: 1000
    snap: 0
    invert: 0
    type: 0
    axis: 0
    joyNum: 0
  - serializedVersion: 3
    m_Name: Jump
    descriptiveName: 
    descriptiveNegativeName: 
    negativeButton: 
    positiveButton: joystick button 3
    altNegativeButton: 
    altPositiveButton: 
    gravity: 1000
    dead: .00100000005
    sensitivity: 1000
    snap: 0
    invert: 0
    type: 0
    axis: 0
    joyNum: 0
  - serializedVersion: 3
    m_Name: Submit
    descriptiveName: 
    descriptiveNegativeName: 
    negativeButton: 
    positiveButton: return
    altNegativeButton: 
    altPositiveButton: joystick button 0
    gravity: 1000
    dead: .00100000005
    sensitivity: 1000
    snap: 0
    invert: 0
    type: 0
    axis: 0
    joyNum: 0
  - serializedVersion: 3
    m_Name: AP1 Left
    descriptiveName: 
    descriptiveNegativeName: 
    negativeButton: 
    positiveButton: a
    altNegativeButton: 
    altPositiveButton: 
    gravity: 1000
    dead: .00100000005
    sensitivity: 1000
    snap: 0
    invert: 1
    type: 0
    axis: 0
    joyNum: 0
  - serializedVersion: 3
    m_Name: AP1 Right
    descriptiveName: 
    descriptiveNegativeName: 
    negativeButton: 
    positiveButton: d
    altNegativeButton: 
    altPositiveButton: 
    gravity: 1000
    dead: .00100000005
    sensitivity: 1000
    snap: 0
    invert: 0
    type: 0
    axis: 0
    joyNum: 0
  - serializedVersion: 3
    m_Name: AP1 Down
    descriptiveName: 
    descriptiveNegativeName: 
    negativeButton: 
    positiveButton: s
    altNegativeButton: 
    altPositiveButton: 
    gravity: 1000
    dead: .00100000005
    sensitivity: 1000
    snap: 0
    invert: 0
    type: 0
    axis: 0
    joyNum: 0
  - serializedVersion: 3
    m_Name: AP1 Up
    descriptiveName: 
    descriptiveNegativeName: 
    negativeButton: 
    positiveButton: w
    altNegativeButton: 
    altPositiveButton: 
    gravity: 1000
    dead: .00100000005
    sensitivity: 1000
    snap: 0
    invert: 0
    type: 0
    axis: 0
    joyNum: 0
  - serializedVersion: 3
    m_Name: AP2 Left
    descriptiveName: 
    descriptiveNegativeName: 
    negativeButton: 
    positiveButton: g
    altNegativeButton: 
    altPositiveButton: 
    gravity: 1000
    dead: .00100000005
    sensitivity: 1000
    snap: 0
    invert: 0
    type: 0
    axis: 0
    joyNum: 0
  - serializedVersion: 3
    m_Name: AP2 Right
    descriptiveName: 
    descriptiveNegativeName: 
    negativeButton: 
    positiveButton: j
    altNegativeButton: 
    altPositiveButton: 
    gravity: 1000
    dead: .00100000005
    sensitivity: 1000
    snap: 0
    invert: 0
    type: 0
    axis: 0
    joyNum: 0
  - serializedVersion: 3
    m_Name: AP2 Down
    descriptiveName: 
    descriptiveNegativeName: 
    negativeButton: 
    positiveButton: h
    altNegativeButton: 
    altPositiveButton: 
    gravity: 1000
    dead: .00100000005
    sensitivity: 1000
    snap: 0
    invert: 0
    type: 0
    axis: 0
    joyNum: 0
  - serializedVersion: 3
    m_Name: AP2 Up
    descriptiveName: 
    descriptiveNegativeName: 
    negativeButton: 
    positiveButton: y
    altNegativeButton: 
    altPositiveButton: 
    gravity: 1000
    dead: .00100000005
    sensitivity: 1000
    snap: 0
    invert: 0
    type: 0
    axis: 0
    joyNum: 0
  - serializedVersion: 3
    m_Name: AP3 Left
    descriptiveName: 
    descriptiveNegativeName: 
    negativeButton: 
    positiveButton: l
    altNegativeButton: 
    altPositiveButton: 
    gravity: 1000
    dead: .00100000005
    sensitivity: 1000
    snap: 0
    invert: 0
    type: 0
    axis: 0
    joyNum: 0
  - serializedVersion: 3
    m_Name: AP3 Right
    descriptiveName: 
    descriptiveNegativeName: 
    negativeButton: 
    positiveButton: ''''
    altNegativeButton: 
    altPositiveButton: 
    gravity: 1000
    dead: .00100000005
    sensitivity: 1000
    snap: 0
    invert: 0
    type: 0
    axis: 0
    joyNum: 0
  - serializedVersion: 3
    m_Name: AP3 Down
    descriptiveName: 
    descriptiveNegativeName: 
    negativeButton: 
    positiveButton: ;
    altNegativeButton: 
    altPositiveButton: 
    gravity: 1000
    dead: .00100000005
    sensitivity: 1000
    snap: 0
    invert: 0
    type: 0
    axis: 0
    joyNum: 0
  - serializedVersion: 3
    m_Name: AP3 Up
    descriptiveName: 
    descriptiveNegativeName: 
    negativeButton: 
    positiveButton: p
    altNegativeButton: 
    altPositiveButton: 
    gravity: 1000
    dead: .00100000005
    sensitivity: 1000
    snap: 0
    invert: 0
    type: 0
    axis: 0
    joyNum: 0
  - serializedVersion: 3
    m_Name: AP4 Left
    descriptiveName: 
    descriptiveNegativeName: 
    negativeButton: 
    positiveButton: left
    altNegativeButton: 
    altPositiveButton: 
    gravity: 1000
    dead: .00100000005
    sensitivity: 1000
    snap: 0
    invert: 0
    type: 0
    axis: 0
    joyNum: 0
  - serializedVersion: 3
    m_Name: AP4 Right
    descriptiveName: 
    descriptiveNegativeName: 
    negativeButton: 
    positiveButton: right
    altNegativeButton: 
    altPositiveButton: 
    gravity: 1000
    dead: .00100000005
    sensitivity: 1000
    snap: 0
    invert: 0
    type: 0
    axis: 0
    joyNum: 0
  - serializedVersion: 3
    m_Name: AP4 Down
    descriptiveName: 
    descriptiveNegativeName: 
    negativeButton: 
    positiveButton: down
    altNegativeButton: 
    altPositiveButton: 
    gravity: 1000
    dead: .00100000005
    sensitivity: 1000
    snap: 0
    invert: 0
    type: 0
    axis: 0
    joyNum: 0
  - serializedVersion: 3
    m_Name: AP4 Up
    descriptiveName: 
    descriptiveNegativeName: 
    negativeButton: 
    positiveButton: up
    altNegativeButton: 
    altPositiveButton: 
    gravity: 1000
    dead: .00100000005
    sensitivity: 1000
    snap: 0
    invert: 0
    type: 0
    axis: 0
    joyNum: 0
