%YAML 1.1
%TAG !u! tag:unity3d.com,2011:
--- !u!78 &1
TagManager:
  serializedVersion: 2
  tags:
  - Player 1
  - Player 2
  - Player 3
  - Player 4
  - Aim
  - Cube
  - Controller 1
  - Controller 2
  - Controller 3
  - Controller 4
  - Car 0
  - Car 1
  - Car 2
  - Car 3
  - Cursor 1
  - Cursor 2
  - Cursor 3
  - Cursor 4
  - Game Controller
  - Respawn 1
  - Respawn 2
  - Respawn 3
  - Respawn 4
  - Camera 1
  - Camera 2
  - Camera 3
  - Camera 4
  - CameraTarget 1
  - CameraTarget 2
  - CameraTarget 3
  - CameraTarget 4
  - Tank
  - clone
  - destructable
  - sniper
  - explosionParticle
  - origLeft
  - OtherCar
  - Vehicle
  - Respawn 5
  - Respawn 6
  - HUD 1
  - HUD 2
  - HUD 3
  - HUD 4
  layers:
  - Default
  - TransparentFX
  - Ignore Raycast
  - 
  - Water
  - UI
  - 
  - 
  - UI1
  - UI2
  - UI3
  - UI4
  - 
  - 
  - 
  - 
  - 
  - 
  - 
  - 
  - 
  - 
  - 
  - 
  - 
  - 
  - 
  - 
  - 
  - 
  - 
  - 
  m_SortingLayers:
  - name: Default
    uniqueID: 0
    locked: 0
  - name: Camera Layer
    uniqueID: 3709395805
    locked: 0
