%YAML 1.1
%TAG !u! tag:unity3d.com,2011:
--- !u!21 &2100000
Material:
  serializedVersion: 6
  m_ObjectHideFlags: 0
  m_PrefabParentObject: {fileID: 0}
  m_PrefabInternal: {fileID: 0}
  m_Name: VolumetricLineMaterial
  m_Shader: {fileID: 4800000, guid: 2d9a4ca4b2730b64e8aade7030f8caeb, type: 3}
  m_ShaderKeywords: 
  m_LightmapFlags: 5
  m_CustomRenderQueue: -1
  stringTagMap: {}
  m_SavedProperties:
    serializedVersion: 2
    m_TexEnvs:
      data:
        first:
          name: _MainTex
        second:
          m_Texture: {fileID: 10300, guid: 0000000000000000f000000000000000, type: 0}
          m_Scale: {x: 1, y: 1}
          m_Offset: {x: 0, y: 0}
    m_Floats:
      data:
        first:
          name: _LineWidth
        second: .150000006
      data:
        first:
          name: _LightSaberFactor
        second: .850000024
      data:
        first:
          name: _LineScale
        second: 529.512878
    m_Colors:
      data:
        first:
          name: _Color
        second: {r: .558823526, g: .558823526, b: .558823526, a: 1}
